CalculationMode = gs

FromScratch = yes
TheoryLevel = independent_particles

AllElectronType = full_anc
AllElectronANCParam = 4

SpinComponents = spinors
RelativisticCorrection = fully_relativistic_zora

%Coordinates
 'H' | 0 | 0 | 0
%

Radius = 7.0
Spacing = 0.3

%StaticMagneticField
  0.0 | 0.5 | 1.0 
%

ExtraStates = 2
SCFCalculateForces = no

