CalculationMode = test

%Coordinates
"Na" | 0.0 | 0.0 |  0.0
%

BoxShape = parallelepiped
%LatticeParameters
 8.0*angstrom | 8.0*angstrom | 8.0*angstrom
%
Spacing = 0.2*angstrom
PeriodicDimensions = 3

PoissonSolver = fft
PoissonTestPeriodicThreshold = 1e-1
