# -*- coding: utf-8 mode: shell-script -*-
#
# The purpose of this test is making sure that spin-polarized
# calculations work.
# It is the calculation of one atom of Carbon, within the LSDA
# calculation.

CalculationMode = gs
FromScratch = yes
UnitsOutput = ev_angstrom

%Coordinates
"C" | 0 | 0 | 0
%

PseudoPotentialSet = pseudodojo_pbe

Spacing = 0.19*angstrom
Radius = 3.0*angstrom

SpinComponents = polarized

ExtraStates = 2

%Occupations
2/3 | 2/3 | 2/3
0 | 0 | 0
%

PoissonSolver = isf
