# -*- coding: utf-8 mode: shell-script -*-

CalculationMode = gs
FromScratch = yes

%Coordinates
"Bi" | 0 | 0 | 0
%

%Species
"Bi" | species_pseudo | file | "18-Bi_pseudodojo_fr.upf"
%

Spacing = 0.4
Radius = 10

ExtraStates = 5
Eigensolver = chebyshev_filter
FilterPotentials = filter_none

%Occupations
 0.5 | 0.5 | 0.5 | 0.5 | 0.5 | 0.5
%

SpinComponents = spinors
RelativisticCorrection = spin_orbit
GuessMagnetDensity = paramagnetic

XCFunctional = lda_x + lda_c_pw
