FromScratch=yes
CalculationMode = gs
PeriodicDimensions = 3
ExperimentalFeatures = yes
BoxShape = parallelepiped
%LatticeParameters
 8.0000000000E+00 | 8.0000000000E+00 | 8.0000000000E+00
%
%LatticeVectors
 7.8010437646E-01 | 0.0000000000E+00 | 6.2564939210E-01
 -3.9005218823E-01 | 6.7559020762E-01 | 6.2564939210E-01
 -3.9005218823E-01 | -6.7559020762E-01 | 6.2564939210E-01
%
Spacing = 0.8
TheoryLevel = independent_particles
MaximumIter = 0
LCAOStart = lcao_none
FilterPotentials = filter_none
%KpointsGrid
 4 | 4 | 4
%
KPointsUseSymmetries = yes
%ReducedCoordinates
"H" | 1.7000000000E-01 | 1.5000000000E-01 | 1.1000000000E-01
"H" | 1.1000000000E-01 | 1.7000000000E-01 | 1.5000000000E-01
"H" | 1.5000000000E-01 | 1.1000000000E-01 | 1.7000000000E-01
"H" | 8.3000000000E-01 | 8.5000000000E-01 | 8.9000000000E-01
"H" | 8.9000000000E-01 | 8.3000000000E-01 | 8.5000000000E-01
"H" | 8.5000000000E-01 | 8.9000000000E-01 | 8.3000000000E-01
%
