# Energy (eV)    Re alpha         Im alpha    Cross-section (A^2)
   0.000          2.6399420       0.00000000       0.00000000
   2.000          2.6982850       0.00041753       0.00007658
   4.000          2.8971400       0.00101794       0.00037339
   6.000          3.3481960       0.00234264       0.00128894
   8.000          4.6913730       0.00996672       0.00731168
  10.000          3.5491510       0.04353013       0.03991767
  10.250          4.2029660       0.11944279       0.11226878
  10.500          4.8277720       0.05017816       0.04831469
  10.750          6.7248380       0.07195993       0.07093725
  11.000         10.3714610       0.25085658       0.25304244
  11.250          4.0375190       1.05741417       1.09086960
  11.500         -0.6101760       0.21304879       0.22467363
  11.750          4.2159620       0.26923934       0.29010257
  12.000         -1.1343180       0.22131726       0.24354080
