FromScratch=yes

CalculationMode = gs

PeriodicDimensions = 3

a = 10.2

Spacing = a/14

BoxShape = parallelepiped
%LatticeParameters
 a | a | a
%

%ReducedCoordinates
  "Si" |   0.0       | 0.0       | 0.0
  "Si" |   1/2       | 1/2       | 0.0
  "Si" |   1/2       | 0.0       | 1/2
  "Si" |   0.0       | 1/2       | 1/2
  "Si" |   1/4       | 1/4       | 1/4
  "Si" |   1/4 + 1/2 | 1/4 + 1/2 | 1/4
  "Si" |   1/4 + 1/2 | 1/4       | 1/4 + 1/2
  "Si" |   1/4       | 1/4 + 1/2 | 1/4 + 1/2
%

%KPointsGrid
 2   | 2   | 2
 0.5 | 0.5 | 0.5
%
KPointsUseSymmetries = yes
KPointsUseTimeReversal = no
SymmetrizeDensity = yes

ExtraStates = 2

ExperimentalFeatures = yes
%Output
 BerkeleyGW
%

# BerkeleyGW output is currently not compatible with k-point parallelization
ParKpoints = no

FilterPotentials = filter_none

MixField = density

Preconditioner = no
